<?xml version="1.0" encoding="utf-8"?>
<!-- Generator: Adobe Illustrator 24.0.0, SVG Export Plug-In . SVG Version: 6.00 Build 0)  -->
<svg version="1.1" xmlns="http://www.w3.org/2000/svg" xmlns:xlink="http://www.w3.org/1999/xlink" x="0px" y="0px"
	 viewBox="0 0 174.6 174.6" style="enable-background:new 0 0 174.6 174.6;" xml:space="preserve">
<style type="text/css">
	.st0{display:none;}
	.st1{display:inline;}
	.st2{fill:#FFFFFF;}
</style>
<g id="Layer_1">
	<g id="Layer_2_1_" class="st0">
		<rect y="0" class="st1" width="174.6" height="174.6"/>
	</g>
	<title>Element 2</title>
</g>
<g id="Layer_2">
	<g>
		<polygon class="st2" points="90.8,46 83.7,46 68.4,80 51.9,80 51.9,86.7 122.7,86.7 122.7,80 106.2,80 		"/>
		<polygon class="st2" points="51.9,101 58.8,101 52,116.1 59.6,116.1 66.3,101 107.9,101 108,101.2 114.6,116.1 122.6,116.1
			115.7,101 122.7,101 122.7,94.3 51.9,94.3 		"/>
	</g>
</g>
</svg>
